D:\QF\MobileBrowserTest\src\main\java\com\qf\dto\PageDetails.java
D:\QF\MobileBrowserTest\src\main\java\com\qf\dto\PageElements.java
D:\QF\MobileBrowserTest\src\main\java\com\qf\mobile\DesiredCapabilitiesController.java
D:\QF\MobileBrowserTest\src\main\java\com\qf\mobile\Main.java
